%YAML 1.1
%TAG !u! tag:unity3d.com,2011:
--- !u!1045 &1
EditorBuildSettings:
  m_ObjectHideFlags: 0
  serializedVersion: 2
  m_Scenes: []
  m_configObjects:
    Unity.XR.Oculus.Settings: {fileID: 11400000, guid: 8a16625c8d39c8b46be64c01f970313d, type: 2}
    com.unity.xr.management.loader_settings: {fileID: 11400000, guid: 256a1a5795e1f9048a3275f30a2482ab, type: 2}
